<!DOCTYPE svg PUBLIC "-//W3C//DTD SVG 1.1//EN"
"http://www.w3.org/Graphics/SVG/1.1/DTD/svg11.dtd">

<svg version="1.1" id="jocequilibrista" xmlns="http://www.w3.org/2000/svg" xmlns:xlink="http://www.w3.org/1999/xlink" x="0px" y="0px"
	 width="100%" viewBox="0 0 1280 720" enable-background="new 0 0 1280 720" xml:space="preserve" preserveAspectRatio="xMinYMin meet">
<g id="fons_1_">
	<rect id="fonsmarro" x="172.101" y="-478.369" fill="#361C14" width="1567.434" height="950.954"/>
	<polygon id="e9" fill="#FFEF58" points="496.098,-178.385 485.867,-181.11 477.821,-174.228 477.253,-184.8 468.219,-190.325 
		478.099,-194.135 480.563,-204.432 487.237,-196.213 497.793,-197.052 492.038,-188.164 	"/>
	<polygon id="e8" fill="#FFEF58" points="761.593,73.626 751.361,70.9 743.315,77.783 742.746,67.21 733.714,61.686 743.594,57.877 
		746.057,47.579 752.731,55.798 763.287,54.959 757.532,63.847 	"/>
	<polygon id="e7" fill="#FFEF58" points="425.602,203.346 415.371,200.62 407.325,207.503 406.756,196.93 397.723,191.405 
		407.603,187.597 410.066,177.299 416.741,185.518 427.298,184.679 421.543,193.567 	"/>
	<polygon id="e6" fill="#FFEF58" points="948.082,358.114 937.852,355.389 929.806,362.271 929.236,351.698 920.203,346.174 
		930.084,342.365 932.548,332.067 939.222,340.285 949.777,339.447 944.022,348.335 	"/>
	<polygon id="e5" fill="#FFEF58" points="911.586,-185.861 901.354,-188.586 893.309,-181.704 892.739,-192.276 883.707,-197.802 
		893.586,-201.61 896.051,-211.908 902.725,-203.689 913.28,-204.528 907.525,-195.64 	"/>
	<polygon id="e4" fill="#FFEF58" points="346.952,-248.465 336.721,-251.19 328.675,-244.308 328.106,-254.88 319.073,-260.405 
		328.953,-264.214 331.417,-274.512 338.091,-266.293 348.647,-267.132 342.892,-258.244 	"/>
	<polygon id="e3" fill="#FFEF58" points="1273.06,91.118 1262.829,88.392 1254.783,95.275 1254.215,84.702 1245.181,79.177 
		1255.061,75.369 1257.524,65.071 1264.199,73.29 1274.756,72.451 1269,81.339 	"/>
	<polygon id="e2" fill="#FFEF58" points="1286.288,-312.15 1276.058,-314.875 1268.012,-307.993 1267.442,-318.565 
		1258.409,-324.09 1268.289,-327.899 1270.754,-338.197 1277.428,-329.978 1287.983,-330.817 1282.229,-321.929 	"/>
	<polygon id="e1" fill="#FFEF58" points="1483.894,335.008 1473.663,332.281 1465.617,339.164 1465.049,328.592 1456.015,323.067 
		1465.895,319.259 1468.358,308.961 1475.033,317.18 1485.59,316.341 1479.834,325.229 	"/>
	
		<linearGradient id="terra_1_" gradientUnits="userSpaceOnUse" x1="-8.1541" y1="489.7932" x2="-8.5071" y2="210.0222" gradientTransform="matrix(1 0 0 1 876.4004 252.6016)">
		<stop  offset="0.0118" style="stop-color:#6F3923"/>
		<stop  offset="1" style="stop-color:#E8AE4C"/>
	</linearGradient>
	<rect id="terra" x="-2" y="470.014" fill="url(#terra_1_)" width="1740.123" height="251.986"/>
	<g id="fons">
		<path opacity="0.3" fill="#464646" enable-background="new    " d="M-3,479c0,0,146.667-6.668,175.333,8l-2.001-310.333L-1,175
			L-3,479z"/>
		<path fill="#BA272C" d="M90.998,474.163c74-2,83.334,7.5,83.334,7.5c0-19.486,11.541-290.084,11.104-326.04
			c-0.438-35.956,5.693-636.119,5.693-636.119H95.478L90.998,474.163z"/>
		<polygon fill="#FFFFFF" points="-2,475 91,474 95,-477.496 -2,-477.496 		"/>
	</g>
</g>
<g id="ferros">
	<path id="ferro1" fill="#FFFFFF" d="M917.502,549.166L925,549l-76-375l-4.832-2.167l-5.248,25.76h-15.53v4.5h15.021l-8.241,39
		h-15.28v4.5h14.771l-8.342,39.5h-14.123v4.5h13.614l-8.241,39h-13.873v4.5h13.364l-7.438,35h-14.466v4.5h13.957l-8.241,39h-14.216
		v4.5h13.707l-7.638,36H773.08v4.5h14.139l-8.241,39h-14.396v4.5h13.889l-9.846,48.942l9.21-0.035l49.463-248.907h40.381
		L917.502,549.166z M828.789,292.594l18.681-93.851l18.713,93.851H828.789z"/>
	<path fill="#BA272C" d="M1011,355L844.334,173.667c-2-2.833,1-6.167,3.334-4l187.069,159.757C1046.334,339,1021,365.665,1011,355z"
		/>
	<circle fill="#65181A" cx="1022.668" cy="342.332" r="18"/>
	<path fill="#FFFFFF" d="M1106.334,823l25.531-0.115L1039,351l-32-0.5l-94.732,470.385l23.4,0.781l48.307-237.557h77.489
		L1106.334,823z M986.311,562.551l36.158-180.762l35.246,180.762H986.311z"/>
	<g id="referencia">
		<line fill="none" stroke="#000000" stroke-miterlimit="10" x1="916.501" y1="251.334" x2="916.501" y2="228.167"/>
		<line fill="none" stroke="#000000" stroke-miterlimit="10" x1="904.917" y1="240" x2="928.084" y2="240"/>
	</g>
</g>
<g id="noi" display="none">
	<g id="brac2" display="inline">
		<path id="bracc2" fill="#F7DDA3" d="M687.261,440.254l5.077,5.071c-6.231,3.464-31.771,15.003-37.233,14.771L640.64,443.77
			C640.639,443.771,679.41,445.325,687.261,440.254z"/>
		<circle id="ma2" fill="#F7DDA3" cx="695.802" cy="439.792" r="8.54"/>
	</g>
	<g id="brac1" display="inline">
		<path id="bracc1" fill="#F7DDA3" d="M566.264,440.254l-5.076,5.071c6.229,3.464,31.771,15.003,37.234,14.771l14.464-16.328
			C612.886,443.771,574.109,445.325,566.264,440.254z"/>
		<circle id="ma1" fill="#F7DDA3" cx="558.357" cy="437.716" r="8.539"/>
	</g>
	<g id="cama2" display="inline">
		<path id="cuixa2" fill="#F7DDA3" d="M638.486,543.828h-5.957v-41.49h11.915C644.444,502.338,638.486,529.555,638.486,543.828z"/>
		<path id="cuixa2_ample" fill="none" d="M638.589,543.854h-6.082c0-10.681-3.835-19.165-3.835-36.841
			c0-5.646,31.578-34.767,31.578-30.146C660.25,505.508,639.037,527.868,638.589,543.854z"/>
		<path id="cuixa2curt" fill="#F7DDA3" d="M632.516,521.34h8.337c1.665-10.243,3.599-19.072,3.599-19.072h-11.936V521.34z"/>
		<path id="peu2_1" fill="#F7DDA3" d="M632.678,543.994c0-5.86,4.753-10.613,10.611-10.613c5.863,0,10.616,4.753,10.616,10.613
			H632.678z"/>
	</g>
	<g id="cama1" display="inline">
		<path id="cuixa1" fill="#F7DDA3" d="M616.595,543.36h5.958v-41.493h-11.916C610.636,501.865,616.595,529.086,616.595,543.36z"/>
		<path id="cuixa1_ample" fill="none" d="M617.084,543.354h6.081c0-10.681,3.835-19.165,3.835-36.841
			c0-5.646-33.582-35.259-33.582-30.642C593.421,504.512,616.635,527.368,617.084,543.354z"/>
		<path id="cuixa1curt" fill="#F7DDA3" d="M622.579,520.934h-8.339c-1.663-10.243-3.595-19.072-3.595-19.072h11.935L622.579,520.934
			L622.579,520.934z"/>
		<path id="peu1_1" fill="#F7DDA3" d="M601.174,543.649c0-5.863,4.755-10.617,10.613-10.617c5.863,0,10.616,4.754,10.616,10.617
			H601.174z"/>
	</g>
	<g id="cos" display="inline">
		<circle id="coss" fill="#F7DDA3" cx="626.677" cy="473.374" r="33.523"/>
		<g id="botons">
			<circle fill="#F7DDA3" cx="627.12" cy="455.256" r="3.125"/>
			<circle fill="#F7DDA3" cx="627.12" cy="468.119" r="3.125"/>
		</g>
		<path id="tirants_1" fill="#F7DDA3" d="M644.795,480.865l-0.104-35.771c0,0-3.271-2.146-5.271-2.688l0.001,37.261h-24.597v-37.448
			c-1.999,0.543-5.271,2.235-5.271,2.235l-0.104,36.412h0.053v1.967h35.166v-1.967L644.795,480.865L644.795,480.865z"/>
	</g>
	<path id="panxa" display="inline" fill="#DDDDDD" d="M660.259,473.657c0,18.52-15.015,33.524-33.524,33.524
		s-33.521-15.01-33.521-33.524H660.259z"/>
	<g id="cap" display="inline">
		<path id="cabellpallasso" fill="none" d="M699.47,376.561c0,12.68-48.042,47.592-72.985,47.592
			c-24.946,0-72.627-45.364-61.479-53.785c-3.718-2.723-13.743-7.923-14.857-14.606c-1.116-6.688,10.168-15.979,14.741-17.461
			c-6.941-1.854-13.999-8.54-13.256-15.229c0.743-6.687,12.474-15.561,17.938-12.051c-4.192-5.036-1.595-19.894,4.354-22.866
			c6.544-3.271,20.44,1.187,22.663,7.649c-0.38-7.277,11.511-16.192,18.563-16.563c7.063-0.369,18.945,10.099,20.433,16.563
			c1.485-6.905,15.604-19.164,23.4-17.679c7.801,1.482,15.532,15.134,14.27,22.425c5.051-5.336,24.362-3.48,28.819,4.317
			c4.458,7.804-10.344,18.657-13.896,22.519c6.472-0.603,19.102,3.483,20.216,14.26c1.113,10.771-15.173,14.485-20.216,16.344
			C693.522,359.101,699.47,373.315,699.47,376.561z"/>
		<path id="cabellnormal" fill="#835D2D" d="M684.11,373.78c0,11.817-34.241,50.128-57.489,50.128s-57.065-39.972-57.301-50.128
			c-0.354-15.683,0-40.061,0-40.061c0-16.257,13.178-29.438,29.438-29.438h55.924c16.257,0,29.434,13.183,29.434,29.438
			C684.11,333.723,684.11,361.965,684.11,373.78z"/>
		<path id="cara" fill="#F7DDA3" d="M678.246,388.221c0,20.301-16.917,54.573-48.021,54.573h-7.203
			c-28.814,0-46.933-34.932-46.933-54.573v-48.897c0-14.467,11.728-26.189,26.189-26.189h49.771
			c14.467,0,26.188,11.728,26.188,26.189L678.246,388.221L678.246,388.221z"/>
		<path id="ull2" fill="#FFFFFF" d="M614.51,357.005c0,3.611-2.938,6.549-6.554,6.549h-3.271c-3.616,0-6.549-2.938-6.549-6.549
			v-19.647c0-3.616,2.933-6.548,6.549-6.548h3.271c3.616,0,6.554,2.932,6.554,6.548V357.005z"/>
		<circle id="pupila2" fill="#050505" cx="606.865" cy="353.945" r="3.711"/>
		<path id="boca" fill="#CF4875" d="M645.939,411.795c0,10.729-8.698,19.428-19.428,19.428c-10.73,0-19.428-8.696-19.428-19.428
			H645.939z"/>
		<path id="bocatrista" fill="none" d="M607.084,431.264c0-10.73,8.698-19.428,19.432-19.428c10.729,0,19.428,8.692,19.428,19.428
			H607.084z"/>
		<circle id="bocaoberta" fill="none" cx="626.5" cy="411.807" r="19.438"/>
		<path id="ull1" fill="#FFFFFF" d="M654.235,357.005c0,3.611-2.932,6.549-6.549,6.549h-3.274c-3.613,0-6.549-2.938-6.549-6.549
			v-19.647c0-3.616,2.936-6.548,6.549-6.548h3.274c3.617,0,6.549,2.932,6.549,6.548V357.005z"/>
		<circle id="pupila1" fill="#050505" cx="646.597" cy="353.945" r="3.711"/>
		<path id="nas" fill="#E7BB6E" d="M635.9,382.021c0,4.994-4.049,9.042-9.043,9.042c-4.993,0-9.041-4.048-9.041-9.042H635.9z"/>
		<path id="orella2" fill="#E7BB6E" d="M678.26,373.94c3.556,0,6.437,2.882,6.437,6.438c0,3.555-2.881,6.437-6.437,6.437V373.94z"/>
		<path id="orella1" fill="#E7BB6E" d="M576.22,373.94c-3.56,0-6.438,2.882-6.438,6.438c0,3.555,2.881,6.437,6.438,6.437V373.94z"/>
		<rect id="cella1" x="598.174" y="322.547" fill="#835D2D" width="16.613" height="4.847"/>
		<rect id="cella2" x="638.1" y="322.776" fill="#835D2D" width="16.617" height="4.852"/>
		<path id="llengua" fill="#CB2B45" d="M617,428.732c2.813,1.582,6.06,2.488,9.516,2.488c3.406,0,6.604-0.879,9.39-2.418
			c-1.129-4.172-4.93-7.245-9.459-7.245C621.938,421.56,618.152,424.598,617,428.732z"/>
		<polygon id="barretquadrat" fill="none" points="653.825,307.563 599.662,307.563 609.353,272.436 644.635,272.436 		"/>
		<g id="barretnormal">
			<path id="barretrodo" fill="none" d="M594.304,305.1c0-18.039,14.622-32.661,32.661-32.661c18.037,0,32.656,14.622,32.656,32.661
				H594.304z"/>
			<rect id="visera" x="576.666" y="298.836" fill="none" width="100.918" height="6.492"/>
		</g>
	</g>
</g>
<g id="noicostat">
	<g id="brac1_1_">
		<path id="bracc2_2_" fill="#F7DDA3" d="M640.89,496.879l-4.867,5.272c-3.71-6.087-14.354-26.157-18.354-42.157
			c-4.186-16.73,17.907-23.706,18-7.5C635.761,468.7,635.507,489.239,640.89,496.879z"/>
		<circle id="ma2_2_" fill="#F7DDA3" cx="641.692" cy="505.393" r="8.54"/>
	</g>
	<g id="cos_1_">
		<circle id="coss_1_" fill="#F7DDA3" cx="626.509" cy="473.541" r="33.523"/>
	</g>
	<path id="panxa_1_" fill="#DDDDDD" d="M660.092,473.824c0,18.52-15.016,33.524-33.525,33.524s-33.521-15.01-33.521-33.524H660.092z
		"/>
	<g id="brac2_1_">
		<path id="bracc2_1_" fill="#F7DDA3" d="M640.39,497.379l-4.867,5.272c-3.71-6.087-14.354-26.157-18.354-42.157
			c-4.186-16.73,17.907-23.706,18-7.5C635.261,469.2,635.007,489.739,640.39,497.379z"/>
		<circle id="ma2_1_" fill="#F7DDA3" cx="641.192" cy="505.893" r="8.54"/>
	</g>
	<g id="cama2_1_">
		<path id="cuixa2_1_" fill="#F7DDA3" d="M630.319,543.994h-5.957v-41.489h11.915C636.277,502.505,630.319,529.722,630.319,543.994z
			"/>
		<path id="peu2_2_" fill="#F7DDA3" d="M624.511,544.16c0-5.859,4.753-10.612,10.61-10.612c5.863,0,10.617,4.753,10.617,10.612
			H624.511z"/>
		<path id="cuixa2_ample_1_" fill="none" d="M630.422,544.021h-6.082c0-10.681-3.836-19.165-3.836-36.841
			c0-5.646,31.578-34.764,31.578-30.146C652.082,505.675,630.87,528.034,630.422,544.021z"/>
		<path id="cuixa2ccurt" fill="#F7DDA3" d="M632.75,521.331h-8.388v-18.826h11.915C636.277,502.505,633.406,515.78,632.75,521.331z"
			/>
	</g>
	<g id="cama1_1_">
		<path id="cuixa1_1_" fill="#F7DDA3" d="M625.159,543.527h-5.958v-41.493h11.916C631.117,502.031,625.159,529.253,625.159,543.527z
			"/>
		<path id="cuixa1_ample_1_" fill="none" d="M624.672,543.521h-6.082c0-10.681-3.836-19.165-3.836-36.841
			c0-5.646,33.584-35.259,33.584-30.639C648.334,504.679,625.12,527.534,624.672,543.521z"/>
		<path id="peu1_2_" fill="#F7DDA3" d="M640.58,543.816c0-5.863-4.754-10.617-10.612-10.617c-5.863,0-10.616,4.754-10.616,10.617
			H640.58z"/>
		<path id="cuixa1ccurt" fill="#F7DDA3" d="M627.459,521.375h-8.217v-19.343h11.916
			C631.158,502.031,628.294,515.541,627.459,521.375z"/>
	</g>
	<g id="cap_1_">
		<path id="cara_1_" fill="#F7DDA3" d="M678.078,388.388c0,20.301-16.916,54.573-48.021,54.573h-7.203
			c-28.814,0-46.933-34.932-46.933-54.573V339.49c0-14.467,11.728-26.189,26.189-26.189h49.771
			c14.467,0,26.189,11.728,26.189,26.189L678.078,388.388L678.078,388.388z"/>
		<path id="ull1_1_" fill="#FFFFFF" d="M660.068,357.172c0,3.611-2.932,6.549-6.549,6.549h-3.275c-3.617,0-6.549-2.938-6.549-6.549
			v-19.647c0-3.616,2.932-6.548,6.549-6.548h3.275c3.617,0,6.549,2.932,6.549,6.548V357.172z"/>
		<circle id="pupila1_1_" fill="#050505" cx="656.429" cy="353.446" r="3.711"/>
		<path id="orella2_1_" fill="#E7BB6E" d="M678.094,375.774c3.555,0,6.436,2.882,6.436,6.438c0,3.555-2.881,6.437-6.436,6.437
			V375.774z"/>
		<rect id="cella2_1_" x="643.933" y="322.943" fill="#835D2D" width="16.617" height="4.848"/>
		<polygon id="barretquadrat_1_" fill="none" points="653.658,307.729 599.495,307.729 609.185,272.603 644.469,272.603 		"/>
		<g id="barretnormal_1_">
			<path id="barretrodo_1_" fill="none" d="M594.136,305.268c0-18.039,14.622-32.661,32.661-32.661
				c18.038,0,32.657,14.622,32.657,32.661H594.136z"/>
			<rect id="visera_1_" x="576.5" y="299.004" fill="none" width="100.916" height="6.491"/>
		</g>
		<path fill="#CF4875" d="M672.275,411.962h-19.359c0,6.756,3.451,12.696,8.688,16.182
			C666.033,423.316,669.609,417.715,672.275,411.962z"/>
		<path fill="none" d="M672.189,412.011c-10.656,0.084-19.273,8.741-19.273,19.42h5.604
			C664.392,425.941,668.97,419.072,672.189,412.011z"/>
		<path fill="none" d="M677.76,393.321c-1.727-0.5-3.539-0.782-5.428-0.782c-10.73,0-19.438,8.703-19.438,19.438
			c0,6.777,3.475,12.738,8.734,16.217C670.949,418.031,676.438,404.411,677.76,393.321z"/>
		<path id="cabellnormal_1_" fill="#835D2D" d="M630.171,327.994c-2.943,4.95-12.944,24.871-15.25,48.75
			c-2.429,25.122-12,41.25-20,41.25c-23.248,0-25.532-33.893-25.768-44.049c-0.354-15.683,0-40.061,0-40.061
			c0-16.257,13.178-29.438,29.438-29.438h55.923c16.258,0,27.736,19.628,12.152,15.295
			C656.4,316.894,635.671,318.744,630.171,327.994z"/>
		<path id="cabellpallasso_1_" fill="none" d="M595,417.827c-24.904,1.364-41.313-38.876-30.169-47.297
			c-3.715-2.723-13.74-7.923-14.854-14.606c-1.116-6.688,10.168-15.979,14.741-17.461c-6.941-1.854-13.999-8.54-13.256-15.229
			c0.739-6.687,12.474-15.561,17.938-12.051c-4.195-5.036-1.595-19.895,4.351-22.867c6.547-3.271,20.443,1.188,22.663,7.65
			c-0.378-7.277,11.514-16.193,18.565-16.564c7.06-0.367,18.945,10.102,20.432,16.564c1.486-6.906,15.604-19.164,23.401-17.68
			c7.801,1.482,15.533,15.135,14.268,22.426c5.053-5.337,18.908,11.641,13.928,19.112c-6,9-31.666-7.666-49.333,2
			C612.135,335.802,619.334,416.494,595,417.827z"/>
		<path id="orella1_1_" fill="#E7BB6E" d="M618.053,374.107c-3.56,0-6.438,2.882-6.438,6.438c0,3.555,2.881,6.437,6.438,6.437
			V374.107z"/>
	</g>
</g>
<g id="focus1">
	<circle opacity="0.15" fill="#FFFFFF" enable-background="new    " cx="641.09" cy="307.863" r="127.742"/>
	<path id="ff1" opacity="0.3" fill="#FFFFFF" enable-background="new    " d="M549.489,396.536
		c27.091,27.88,66.536,43.079,108.05,37.683c69.892-9.087,119.183-73.111,110.096-143.002c-6.08-46.761-36.753-84.301-77.32-101.305
		L0-172.385L549.489,396.536z"/>
</g>
<g id="focus2">
	<circle opacity="0.15" fill="#FFFFFF" enable-background="new    " cx="639.811" cy="306.248" r="127.742"/>
	<path id="ff2" opacity="0.3" fill="#FFFFFF" enable-background="new    " d="M731.411,394.922
		c-27.091,27.88-66.536,43.079-108.05,37.682c-69.891-9.087-119.182-73.111-110.095-143.002
		c6.08-46.762,36.752-84.301,77.32-101.305L1280.9-174L731.411,394.922z"/>
</g>
</svg>
